\relax 
\newlabel{equation:1}{{1}{1}}
\newlabel{equation:2}{{2}{1}}
\newlabel{equation:3}{{3}{1}}
\newlabel{equation:4}{{4}{1}}
\newlabel{equation:5}{{5}{1}}
\newlabel{equation:6}{{6}{1}}
\newlabel{equation:7}{{7}{1}}
\newlabel{equation:8}{{8}{1}}
\newlabel{equation:9}{{9}{1}}
\newlabel{equation:10}{{10}{1}}
\newlabel{expresion}{{11}{2}}
